{
  "0": [
    "44444444",
    "44444444",
    "44444444",
    "44444444",
    "44444444",
    "44444444",
    "44444444",
    "44444444"
  ],
  "1": [
    "11111111",
    "11111111",
    "11111111",
    "11111111",
    "11111111",
    "11111111",
    "11111111",
    "11111111"
  ],
  "2": [
    "        ",
    "        ",
    "        ",
    "        ",
    " 6 6 6 6",
    "65656565",
    "55555555",
    "55555555"
  ],
  "3": [
    "  8888  ",
    "  8448  ",
    "  8888  ",
    "  7997  ",
    "99999999",
    "  6666  ",
    "  6666  ",
    "  6  6  "
  ],
  "4": [
    "        ",
    "        ",
    "        ",
    "        ",
    "        ",
    "        ",
    "        ",
    "        "
  ],
  "5": [
    "        ",
    "        ",
    "        ",
    "        ",
    "        ",
    "        ",
    "        ",
    "        "
  ],
  "7": [
    "        ",
    "        ",
    "        ",
    "        ",
    "   5    ",
    " 75 5111",
    " 5  1511",
    "5   1151"
  ],
  "9": [
    "        ",
    "        ",
    "        ",
    "  5     ",
    " 555    ",
    "  5     ",
    "        ",
    "        "
  ],
  "11": [
    "        ",
    "        ",
    "        ",
    "        ",
    "  555   ",
    "  555   ",
    "  555   ",
    "        "
  ],
  "12": [
    "        ",
    "        ",
    "        ",
    "        ",
    "    7   ",
    "   55   ",
    "  55    ",
    "        "
  ],
  "16": [
    "66666666",
    "66666666",
    "66666666",
    "66666666",
    "66666666",
    "66666666",
    "66666666",
    "66666666"
  ],
  "17": [
    "        ",
    "        ",
    "        ",
    "        ",
    "        ",
    "        ",
    "        ",
    "        "
  ],
  "18": [
    "        ",
    "        ",
    "        ",
    "        ",
    "        ",
    "        ",
    "        ",
    "        "
  ],
  "19": [
    "        ",
    "        ",
    "        ",
    "        ",
    "        ",
    "        ",
    "        ",
    "        "
  ],
  "20": [
    "        ",
    "        ",
    "        ",
    "        ",
    "        ",
    "        ",
    "        ",
    "        "
  ],
  "21": [
    "        ",
    "        ",
    "        ",
    "        ",
    "        ",
    "        ",
    "        ",
    "        "
  ],
  "22": [
    "        ",
    "        ",
    "        ",
    "        ",
    "        ",
    "        ",
    "        ",
    "        "
  ],
  "23": [
    "        ",
    "        ",
    "        ",
    "        ",
    "        ",
    "        ",
    "        ",
    "        "
  ],
  "24": [
    "        ",
    "        ",
    "        ",
    "        ",
    "        ",
    "        ",
    "        ",
    "        "
  ],
  "25": [
    "        ",
    "        ",
    "        ",
    "        ",
    "        ",
    "        ",
    "        ",
    "        "
  ],
  "40": [
    "        ",
    "        ",
    "        ",
    "        ",
    "        ",
    "        ",
    "        ",
    "        "
  ],
  "41": [
    "        ",
    "        ",
    "        ",
    "        ",
    "        ",
    " 7  3   ",
    "777333  ",
    " 7  3   "
  ],
  "43": [
    "        ",
    "        ",
    "  75    ",
    "  5 5   ",
    "   5    ",
    "        ",
    "        ",
    "        "
  ],
  "54": [
    "        ",
    "        ",
    "        ",
    "        ",
    "        ",
    "        ",
    "        ",
    "        "
  ],
  "56": [
    "        ",
    "        ",
    "        ",
    "        ",
    "        ",
    "        ",
    "        ",
    "        "
  ],
  "58": [
    "        ",
    "        ",
    "        ",
    "        ",
    "        ",
    "        ",
    "        ",
    "        "
  ],
  "71": [
    "        ",
    "        ",
    "        ",
    "        ",
    "        ",
    "        ",
    "        ",
    "        "
  ],
  "72": [
    "        ",
    "        ",
    "        ",
    "        ",
    "        ",
    "        ",
    "        ",
    "        "
  ],
  "77": [
    "        ",
    "        ",
    "        ",
    "        ",
    "        ",
    "        ",
    "        ",
    "        "
  ],
  "83": [
    "        ",
    "        ",
    "        ",
    "        ",
    "        ",
    "        ",
    "        ",
    "1       "
  ],
  "98": [
    "        ",
    "        ",
    "        ",
    "        ",
    "        ",
    "        ",
    "        ",
    "        "
  ]
}